<svg xmlns="http://www.w3.org/2000/svg" width="50" height="50" viewBox="0 0 50 50">
    <g fill="none" fill-rule="evenodd" stroke="#AC2828">
        <rect width="49" height="49" x=".5" y=".5" fill="#FFF" rx="5"/>
        <path stroke-linecap="round" stroke-linejoin="round" stroke-width="1.5" d="M23.283 15.421h3.095c3.152.082 5.853 1.228 8.101 3.438C36.827 21.168 38 23.95 38 27.204c0 1.377-.21 2.668-.629 3.876-.573 1.651-1.537 3.138-2.892 4.463C32.14 37.848 29.311 39 25.995 39s-6.147-1.152-8.49-3.457l-.246-.24C15.166 33.134 14.08 30.56 14 27.575"/>
        <path stroke-linecap="round" stroke-linejoin="round" stroke-width="1.5" d="M25.993 19.842L21.5 15.417 26 11"/>
    </g>
</svg>
