<svg xmlns="http://www.w3.org/2000/svg" width="99" height="69" viewBox="0 0 99 69">
    <g fill="none" fill-rule="evenodd">
        <path d="M-566-487H764v8515H-566V2947.731z"/>
        <path d="M-587-53H764v160H-587z"/>
        <path fill="#FFF" d="M20.47 63.712v3.482c0 1.032-.904 1.806-1.806 1.806H2.929c-.903 0-1.677-.774-1.677-1.806v-9.93c-1.16-8.126-1.547-16.122 0-24.247.13-2.967 2.064-5.16 4.385-7.094-1.29-.644-2.579-1.418-3.869-2.063-1.934-1.677-2.58-3.353.258-4.643 2.322-1.16 5.288-1.677 9.286-1.419.516.774 1.161 1.548 1.677 2.322l6.19-12.769c1.806-2.966 4.386-4.514 7.48-5.416 15.22-2.58 30.438-2.58 45.786 0 2.966.902 5.675 2.45 7.351 5.416 2.064 4.256 4.127 8.513 6.32 12.769.516-.774 1.16-1.548 1.677-2.322 3.869-.258 6.964.258 9.286 1.419 2.837 1.29 2.192 2.966.258 4.643-1.29.645-2.58 1.419-3.87 2.063 2.193 1.935 4.128 4.127 4.385 7.094 1.548 8.125 1.161 16.121 0 24.247v9.93c0 1.032-.773 1.806-1.805 1.806H80.44c-1.032 0-1.805-.774-1.805-1.806v-3.482c-20.894-1.548-40.369-1.548-58.167 0zm9.156-57.134c-2.192.129-4.256.644-5.674 3.095-1.935 3.87-3.999 7.867-6.062 11.865a430.665 430.665 0 0 1 63.196 0c-1.934-3.998-3.998-7.996-6.062-11.865-1.29-2.45-3.353-2.966-5.545-3.095-13.413-1.806-26.44-1.806-39.853 0zm57.65 45.269H75.67c-.903 0-1.676.645-1.676 1.547 0 .903.773 1.548 1.676 1.548h11.608c.774 0 1.547-.645 1.547-1.548 0-.902-.773-1.547-1.547-1.547zm-9.93-4.643h12.252c3.225-1.161 4.514-7.094 2.58-7.48-3.998.515-8.126.902-11.995 1.29-2.192 1.289-4.385 3.223-2.837 6.19zm-65.518 4.643h11.608c.902 0 1.547.645 1.547 1.547 0 .903-.645 1.548-1.547 1.548H11.828c-.903 0-1.548-.645-1.548-1.548 0-.902.645-1.547 1.548-1.547zm9.802-4.643H9.507c-3.354-1.161-4.514-7.094-2.58-7.48 3.87.515 8.125.902 11.995 1.29 2.192 1.289 4.256 3.223 2.708 6.19z"/>
    </g>
</svg>
