<svg xmlns="http://www.w3.org/2000/svg" width="25" height="25" viewBox="0 0 25 25">
    <circle cx="12.5" cy="12.5" r="11.5" fill="none" fill-rule="evenodd" stroke="#D8D8D8" stroke-width="1.5"/>
</svg>
