<svg xmlns="http://www.w3.org/2000/svg" width="50" height="50" viewBox="0 0 50 50">
    <g fill="none" fill-rule="evenodd" stroke="#568AEA">
        <rect width="49" height="49" x=".5" y=".5" fill="#FFF" rx="5"/>
        <g stroke-linecap="round" stroke-linejoin="round" stroke-width="1.5">
            <path d="M28.657 23H23v-5.657m0 11.314V23h-5.657M32 32l8 8"/>
            <path d="M31.486 31.489C29.143 33.832 26.314 35.002 23 35c-3.314.002-6.143-1.168-8.486-3.511C12.171 29.146 11 26.316 11 23c0-.276.009-.548.024-.818.179-2.962 1.343-5.517 3.49-7.664C16.857 12.175 19.686 11.002 23 11c.776 0 1.524.065 2.248.194 2.364.421 4.444 1.53 6.238 3.323 1.794 1.794 2.901 3.873 3.322 6.236A13.094 13.094 0 0 1 35 23c0 2.75-.806 5.166-2.418 7.246a13.03 13.03 0 0 1-1.096 1.243z"/>
        </g>
    </g>
</svg>
