<svg xmlns="http://www.w3.org/2000/svg" width="59" height="44" viewBox="0 0 59 44">
    <g fill="#ffffff" fill-rule="evenodd">
        <path d="M54.677 21.357h-.252l-.066-.408a1.255 1.255 0 1 0-2.478.4l.229 1.43c.067.547.1 1.024.1 1.455v14.692a2.43 2.43 0 0 1-2.426 2.43h-3.34a2.427 2.427 0 0 1-2.416-2.325h4.383c.693 0 1.255-.564 1.255-1.259 0-.694-.562-1.258-1.255-1.258H10.589a1.257 1.257 0 1 0 0 2.517h4.382a2.426 2.426 0 0 1-2.414 2.325h-3.34a2.43 2.43 0 0 1-2.427-2.43V24.234c0-.437.033-.916.102-1.462a1.255 1.255 0 0 0-1.245-1.415H4.324a1.817 1.817 0 0 1 0-3.634h2.978c.522 0 .989-.323 1.174-.81 1.94-5.116 4.95-10.23 5.9-11.728 1.326-.815 5.005-2.04 15.124-2.04 10.12 0 13.798 1.225 15.124 2.04.95 1.493 3.956 6.597 5.9 11.727.185.488.652.811 1.173.811h2.98a1.817 1.817 0 0 1 0 3.634M59 19.54c0-2.39-1.94-4.334-4.323-4.334h-2.122C50.463 9.964 47.5 4.982 46.583 3.587a1.256 1.256 0 0 0-.327-.337C43.786 1.51 38.148.63 29.5.63s-14.285.88-16.756 2.62c-.13.092-.24.206-.327.338-.919 1.4-3.884 6.389-5.971 11.62H4.324a4.334 4.334 0 0 0-.039 8.666c-.004.122-.005.242-.005.36v14.692c0 2.728 2.214 4.947 4.936 4.947h3.34c2.686 0 4.874-2.163 4.93-4.842H41.51c.057 2.68 2.246 4.842 4.932 4.842h3.34c2.723 0 4.936-2.22 4.936-4.947V24.234c0-.118-.002-.238-.005-.36A4.333 4.333 0 0 0 59 19.54"/>
        <path d="M32.296 27.347h-1.54v-5.61h1.54a2.805 2.805 0 0 1 0 5.61zm-5.592-8.127a2.805 2.805 0 0 1 0-5.61h1.54v5.61h-1.54zm5.592 0h-1.54v-5.61h4.908a1.257 1.257 0 1 0 0-2.517h-4.909V8.685c0-.695-.563-1.258-1.255-1.258-.693 0-1.255.563-1.255 1.258v2.41h-1.54c-2.928 0-5.31 2.387-5.31 5.322 0 2.934 2.382 5.321 5.31 5.321h1.54v5.61H22.65c-.693 0-1.255.564-1.255 1.259 0 .694.562 1.258 1.255 1.258h5.594v2.409c0 .694.562 1.258 1.255 1.258.692 0 1.255-.564 1.255-1.258v-2.409h1.54c2.928 0 5.31-2.387 5.31-5.322 0-2.934-2.382-5.322-5.31-5.322z"/>
    </g>
</svg>
