<svg xmlns="http://www.w3.org/2000/svg" width="11" height="15" viewBox="0 0 11 15">
    <path fill="#FFF" fill-rule="nonzero" d="M3.457 13.87L9.862 7.8A.401.401 0 0 0 10 7.5a.402.402 0 0 0-.138-.3L3.457 1.13a.446.446 0 0 0-.632 0l-.688.651a.402.402 0 0 0-.137.3c0 .113.046.213.137.3L7.54 7.5 2.137 12.62a.402.402 0 0 0-.137.3c0 .112.046.212.137.299l.688.651a.446.446 0 0 0 .632 0z"/>
</svg>
