<svg xmlns="http://www.w3.org/2000/svg" xmlns:xlink="http://www.w3.org/1999/xlink" width="137" height="49" viewBox="0 0 137 49">
    <defs>
        <path id="a" d="M.332.723h4.252V39H.332z"/>
        <path id="c" d="M.692.723h4.25V39H.692z"/>
        <path id="e" d="M.239.723h4.25V39H.24z"/>
        <path id="g" d="M.785.723h4.252V39H.785z"/>
        <path id="i" d="M0 .735h38.276v4.253H0z"/>
        <path id="k" d="M62.44 1.318h26.092v31.646H62.44z"/>
    </defs>
    <g fill="none" fill-rule="evenodd">
        <g transform="translate(29 5)">
            <mask id="b" fill="#fff">
                <use xlink:href="#a"/>
            </mask>
            <path fill="#E1251B" d="M.338 37.942C.326 38.897 1.533 39 2.263 39h.392c.073 0 .131-.002.216-.01 1.725-.09 1.712-.74 1.712-1.048a7.5 7.5 0 0 1 0-.52V1.787C4.596.837 3.383.724 2.655.724h-.392C1.533.723.326.836.338 1.788c0 .2-.006.395-.006.596v34.959c0 .018 0 .045.006.097v.502z" mask="url(#b)"/>
        </g>
        <g transform="translate(6 5)">
            <mask id="d" fill="#fff">
                <use xlink:href="#c"/>
            </mask>
            <path fill="#E1251B" d="M.699 37.942C.686 38.897 1.893 39 2.623 39h.392c.073 0 .132-.002.215-.01 1.725-.09 1.712-.74 1.712-1.048a14.997 14.997 0 0 1 0-.52V1.787C4.955.837 3.744.724 3.015.724h-.392C1.893.723.686.836.699 1.788c0 .2-.007.395-.007.596v34.959c0 .018 0 .045.007.097v.502z" mask="url(#d)"/>
        </g>
        <g transform="translate(14 5)">
            <mask id="f" fill="#fff">
                <use xlink:href="#e"/>
            </mask>
            <path fill="#E1251B" d="M.244 37.942C.234 38.897 1.44 39 2.17 39h.393c.072 0 .13-.002.215-.01 1.725-.09 1.712-.74 1.712-1.048a7.5 7.5 0 0 1 0-.52V1.787C4.503.837 3.29.724 2.563.724H2.17C1.44.723.234.836.244 1.788c0 .2-.005.395-.005.596v34.959c0 .018 0 .045.005.097v.502z" mask="url(#f)"/>
        </g>
        <g transform="translate(21 5)">
            <mask id="h" fill="#fff">
                <use xlink:href="#g"/>
            </mask>
            <path fill="#E1251B" d="M.792 37.942C.782 38.897 1.986 39 2.718 39h.393c.072 0 .13-.002.214-.01 1.727-.09 1.713-.74 1.713-1.048a11.248 11.248 0 0 1 0-.52V1.787C5.05.837 3.837.724 3.11.724h-.393C1.987.723.782.836.792 1.788c0 .2-.007.395-.007.596v34.959c0 .018 0 .045.007.097v.502z" mask="url(#h)"/>
        </g>
        <g transform="translate(1 22)">
            <mask id="j" fill="#fff">
                <use xlink:href="#i"/>
            </mask>
            <path fill="#E1251B" d="M1.056.742C.102.73 0 1.935 0 2.668v.393c0 .073.003.13.01.214C.097 5 .747 4.988 1.056 4.988a7.53 7.53 0 0 1 .521 0h35.634c.952.011 1.065-1.2 1.065-1.927v-.393c0-.733-.113-1.938-1.066-1.926-.202 0-.393-.007-.596-.007H1.657c-.02 0-.043 0-.098.007h-.503z" mask="url(#j)"/>
        </g>
        <g transform="translate(48 8)">
            <path fill="#00205C" d="M44.28 28.594h-.073c-5.81 0-8.073-3.25-8.073-11.59 0-8.25 2.17-11.318 8.014-11.318h.189c5.844 0 8.017 3.067 8.017 11.317 0 8.34-2.263 11.591-8.073 11.591M44.255.895C34.134.895 29.62 5.88 29.62 17.055c0 10.918 4.703 16.26 14.378 16.33h.47c9.694-.05 14.407-5.392 14.407-16.33 0-11.176-4.51-16.16-14.62-16.16M3.61 30.912c2.052 1.584 4.845 2.26 9.339 2.26H13.232c4.528 0 7.328-.676 9.363-2.259 2.955-2.245 3.452-4.89 3.452-9.97l.006-18.228c.003-.266.008-.597-.286-.897-.466-.47-1.504-.71-3.087-.71-1.567 0-2.596.238-3.06.708-.297.301-.292.634-.288.901v19.045c0 3.171 0 3.831-1.41 4.992-1.297 1.057-3.26 1.192-4.822 1.192-1.562 0-3.522-.135-4.821-1.19-1.404-1.155-1.404-1.804-1.403-4.924V2.717c.005-.267.008-.599-.287-.9-.465-.47-1.5-.709-3.071-.709-1.575 0-2.61.24-3.073.71-.297.3-.293.632-.288.898v18.226c0 5.077.499 7.721 3.453 9.97"/>
            <mask id="l" fill="#fff">
                <use xlink:href="#k"/>
            </mask>
            <path fill="#00205C" d="M76.186 28.43H69.06v-9.547h7.642c4.237 0 5.088 1.845 5.088 4.822 0 4.011-1.467 4.725-5.604 4.725zm-7.12-22.689h7.27c3.763 0 4.061 1.908 4.061 4.401 0 2.982-1.366 4.254-4.568 4.254h-6.763V5.741zm15.082-2.74c-1.672-1.243-3.666-1.683-7.623-1.683H63.513c-.592 0-1.073.48-1.073 1.068v29.5c0 .594.481 1.078 1.073 1.078h13.65c3.706 0 6.295-.12 8.45-1.742 2.412-1.87 2.92-4.938 2.92-7.182 0-2.96-.995-5.305-2.799-6.6-.784-.584-1.709-.934-2.59-1.243l-.592-.207.566-.27c2.658-1.27 3.631-3.034 3.59-6.51-.024-1.629-.386-4.6-2.56-6.209z" mask="url(#l)"/>
            <text fill="#444" font-family="Helvetica" font-size="12" mask="url(#l)">
                <tspan x="1" y="20">00205c</tspan>
            </text>
        </g>
    </g>
</svg>
