<svg xmlns="http://www.w3.org/2000/svg" width="20" height="20" viewBox="0 0 20 20">
    <g fill="none" fill-rule="evenodd" stroke="#C0C0C0" stroke-linecap="square" stroke-width="2">
        <path d="M4.5 7.5l5.523 5.523M15.5 7.5l-5.099 5.099"/>
    </g>
</svg>
