<svg xmlns="http://www.w3.org/2000/svg" width="17" height="17" viewBox="0 0 17 17">
    <g fill="none" fill-rule="nonzero">
        <circle cx="8.5" cy="8.5" r="7.75" fill="#002165" stroke="#466C9F" stroke-width="1.5"/>
        <circle cx="8.5" cy="8.5" r="3" fill="#FFF" fill-opacity=".01"/>
    </g>
</svg>
