<svg xmlns="http://www.w3.org/2000/svg" width="13" height="17" viewBox="0 0 13 17">
    <path fill="none" fill-rule="evenodd" stroke="#DDEBFF" stroke-linecap="round" stroke-linejoin="round" d="M6.096 14.809a9.803 9.803 0 0 1-.402-.286 6.667 6.667 0 0 1-.69-.587 9.9 9.9 0 0 1-.718-.772c-.318-.378-.631-.802-.941-1.271a19.42 19.42 0 0 1-.635-1.033C1.774 9.25 1.228 7.828 1.073 6.59a8.41 8.41 0 0 1-.022-2.029c.012-.098.026-.194.044-.29l.03-.187c.055-.27.126-.53.214-.782.29-.818.838-1.459 1.646-1.921.822-.47 1.471-.506 1.949-.107.48.4.927.957 1.342 1.67.415.712.677 1.373.786 1.983.11.611-.245 1.152-1.067 1.623-.59.337-1.195.508-1.811.513.027.134.061.27.103.408.182.627.475 1.288.88 1.981a3.213 3.213 0 0 1 .069.12c.19.325.386.626.587.902.227.313.462.596.707.848.099.103.2.201.304.294.313-.53.766-.964 1.357-1.301.82-.47 1.47-.505 1.948-.105l.187.166c.222.208.438.45.647.727.174.235.344.493.508.775.416.714.678 1.376.786 1.986.11.61-.245 1.15-1.066 1.62-.809.462-1.643.613-2.505.453a6.841 6.841 0 0 1-.189-.041"/>
</svg>
