<svg xmlns="http://www.w3.org/2000/svg" width="107" height="22" viewBox="0 0 107 22">
    <g fill="none" fill-rule="evenodd">
        <path stroke="#0E3F97" d="M6 1h95a5 5 0 0 1 5 5v10a5 5 0 0 1-5 5H6a5 5 0 0 1-5-5V6a5 5 0 0 1 5-5z"/>
        <text fill="#15408E" font-family="Helvetica" font-size="12" transform="translate(32 4)">
            <tspan x="0" y="11">Save &amp; Exit</tspan>
        </text>
        <g stroke="#15408E" stroke-linecap="round" stroke-linejoin="round">
            <path d="M21.691 13.097v3.028h-8.19V4.5h8.19v2.973M16.18 6.301v9.703M23.613 8.546l1.77 1.774-1.77 1.768M25.382 10.32h-3.537"/>
        </g>
    </g>
</svg>
