<svg xmlns="http://www.w3.org/2000/svg" width="20" height="20" viewBox="0 0 20 20">
    <g fill="none" fill-rule="evenodd" stroke="#FFF" stroke-linecap="square">
        <path d="M.77.77l18.525 18.525M19.23.77L.706 19.294"/>
    </g>
</svg>
