<svg xmlns="http://www.w3.org/2000/svg" xmlns:xlink="http://www.w3.org/1999/xlink" width="30" height="30" viewBox="0 0 30 30">
    <defs>
        <rect id="a" width="28" height="28" x="1" y="1" rx="3"/>
    </defs>
    <g fill="none" fill-rule="evenodd">
        <g>
            <use fill="#FFF" xlink:href="#a"/>
            <rect width="29" height="29" x=".5" y=".5" stroke="#9B9B9B" rx="3"/>
        </g>
        <path fill="#1F6EDA" stroke="#1F6EDA" stroke-width="1.05" d="M10.864 19.806l-3.593-3.419c-.361-.301-.361-.624 0-.968.362-.344.7-.344 1.017 0l3.119 2.968 10.305-9.161c.361-.301.7-.301 1.017 0 .361.3.361.623 0 .968L11.88 19.806a.667.667 0 0 1-.474.194c-.226 0-.407-.065-.543-.194z"/>
    </g>
</svg>
