<svg xmlns="http://www.w3.org/2000/svg" width="65" height="47" viewBox="0 0 65 47">
    <g fill="none" fill-rule="evenodd">
        <path fill="#1F6EDA" d="M62.798 22.628h-.304l-.079-.49a1.51 1.51 0 0 0-1.73-1.25 1.509 1.509 0 0 0-1.252 1.73l.275 1.716c.081.657.12 1.23.12 1.747v17.63a2.92 2.92 0 0 1-2.918 2.916h-4.02a2.917 2.917 0 0 1-2.907-2.79h5.274a1.51 1.51 0 0 0 0-3.02H9.743a1.51 1.51 0 0 0 0 3.02h5.273a2.915 2.915 0 0 1-2.906 2.79H8.09a2.92 2.92 0 0 1-2.919-2.916V26.08c0-.525.04-1.1.123-1.755a1.512 1.512 0 0 0-1.499-1.698H2.204A2.183 2.183 0 0 1 .022 20.45c0-1.202.978-2.18 2.182-2.18h3.584c.627 0 1.19-.389 1.412-.974 2.335-6.14 5.957-12.276 7.1-14.074C15.896 2.244 20.323.774 32.5.774c12.178 0 16.604 1.47 18.2 2.448 1.143 1.792 4.76 7.916 7.1 14.073.223.585.785.973 1.412.973h3.586c1.203 0 2.18.979 2.18 2.181a2.182 2.182 0 0 1-2.18 2.18"/>
        <path fill="#FFF" d="M35.864 29.817h-1.853v-6.733h1.853a3.37 3.37 0 0 1 3.367 3.367 3.37 3.37 0 0 1-3.367 3.366zm-6.728-9.753a3.37 3.37 0 0 1-3.367-3.365 3.37 3.37 0 0 1 3.367-3.366h1.853v6.731h-1.853zm6.728 0h-1.853v-6.731h5.906a1.51 1.51 0 0 0 0-3.02h-5.906V7.42a1.511 1.511 0 0 0-3.022 0v2.892h-1.853a6.395 6.395 0 0 0-6.389 6.386c0 3.52 2.866 6.385 6.389 6.385h1.853v6.733h-6.731a1.51 1.51 0 0 0 0 3.02h6.731v2.89a1.51 1.51 0 0 0 3.022 0v-2.89h1.853a6.394 6.394 0 0 0 6.389-6.386 6.395 6.395 0 0 0-6.389-6.387z"/>
    </g>
</svg>
