<svg xmlns="http://www.w3.org/2000/svg" width="11" height="14" viewBox="0 0 11 14">
    <path fill="#FFF" fill-rule="nonzero" d="M7.043.63L.638 6.7A.401.401 0 0 0 .5 7c0 .113.046.213.138.3l6.405 6.07a.446.446 0 0 0 .632 0l.688-.651a.402.402 0 0 0 .137-.3.402.402 0 0 0-.137-.3L2.96 7 8.363 1.88a.402.402 0 0 0 .137-.3.403.403 0 0 0-.137-.299L7.675.63a.446.446 0 0 0-.632 0z"/>
</svg>
