<svg xmlns="http://www.w3.org/2000/svg" width="62" height="46" viewBox="0 0 62 46">
    <defs>
        <filter id="a" width="117.7%" height="123.9%" x="-8.9%" y="-7.6%" filterUnits="objectBoundingBox">
            <feOffset dy="2" in="SourceAlpha" result="shadowOffsetOuter1"/>
            <feGaussianBlur in="shadowOffsetOuter1" result="shadowBlurOuter1" stdDeviation="1.5"/>
            <feColorMatrix in="shadowBlurOuter1" result="shadowMatrixOuter1" values="0 0 0 0 0 0 0 0 0 0 0 0 0 0 0 0 0 0 0.102694746 0"/>
            <feMerge>
                <feMergeNode in="shadowMatrixOuter1"/>
                <feMergeNode in="SourceGraphic"/>
            </feMerge>
        </filter>
    </defs>
    <g fill="none" fill-rule="evenodd">
        <g fill="#FFF" filter="url(#a)">
            <path d="M54.767 8.178h-1.034V0H.517C.258 0 0 .256 0 .511V45.49c0 .255.258.511.517.511h60.966c.259 0 .517-.256.517-.511V8.178h-7.233z"/>
            <path d="M54.767.256v6.593c0 .204.155.307.31.307h6.665c.103 0 .155-.052.258-.103L54.87 0a.388.388 0 0 0-.103.256"/>
        </g>
        <path fill="#1F6EDA" d="M30.105 16.656a.43.43 0 0 0-.284.135l-3.126 3.347a.413.413 0 0 0 .003.592.432.432 0 0 0 .627-.03l2.385-2.553v10.641a.441.441 0 0 0 .426.427c.225 0 .43-.206.426-.427V18.147l2.385 2.553c.15.178.42.202.6.054a.413.413 0 0 0 .03-.616l-3.126-3.347a.43.43 0 0 0-.346-.135"/>
    </g>
</svg>
